-------------------------------------------------------------------------------
Test set: devops.ilp1.controllerWithoutDb.ChangePasswordTest
-------------------------------------------------------------------------------
Tests run: 1, Failures: 0, Errors: 0, Skipped: 0, Time elapsed: 0.014 sec - in devops.ilp1.controllerWithoutDb.ChangePasswordTest
